simulation/qsim/orientacion.msim.vcd
$comment
	File created using the following command:
		vcd file orientacion.msim.vcd -direction
$end
$date
	Wed Nov 27 17:34:15 2024
$end
$version
	ModelSim Version 10.1d
$end
$timescale
	1ps
$end
$scope module ubicacion_vlg_vec_tst $end
$var reg 1 ! clock $end
$var reg 1 " Gder $end
$var reg 1 # Gizq $end
$var reg 1 $ reset $end
$var reg 1 % S $end
$var wire 1 & o0 $end
$var wire 1 ' o1 $end
$var wire 1 ( p0 $end
$var wire 1 ) p1 $end
$var wire 1 * p2 $end
$var wire 1 + p3 $end
$var wire 1 , sampler $end
$scope module i1 $end
$var wire 1 - gnd $end
$var wire 1 . vcc $end
$var wire 1 / unknown $end
$var tri1 1 0 devclrn $end
$var tri1 1 1 devpor $end
$var tri1 1 2 devoe $end
$var wire 1 3 Gder~input_o $end
$var wire 1 4 Gizq~input_o $end
$var wire 1 5 clock~input_o $end
$var wire 1 6 clock~inputclkctrl_outclk $end
$var wire 1 7 o0~output_o $end
$var wire 1 8 o1~output_o $end
$var wire 1 9 p0~output_o $end
$var wire 1 : p1~output_o $end
$var wire 1 ; p2~output_o $end
$var wire 1 < p3~output_o $end
$var wire 1 = inst1|Selector0~1_combout $end
$var wire 1 > reset~input_o $end
$var wire 1 ? reset~inputclkctrl_outclk $end
$var wire 1 @ inst1|state.E~q $end
$var wire 1 A inst1|Selector0~0_combout $end
$var wire 1 B inst1|Selector0~4_combout $end
$var wire 1 C inst1|state.O~q $end
$var wire 1 D inst1|Selector0~2_combout $end
$var wire 1 E inst1|Selector0~5_combout $end
$var wire 1 F inst1|state.S~q $end
$var wire 1 G inst1|Selector0~3_combout $end
$var wire 1 H inst1|state.N~q $end
$var wire 1 I inst1|o0~combout $end
$var wire 1 J inst1|o1~combout $end
$var wire 1 K S~input_o $end
$var wire 1 L S~inputclkctrl_outclk $end
$var wire 1 M inst|a[0]~0_combout $end
$var wire 1 N inst|Mux3~0_combout $end
$var wire 1 O inst|Mux2~0_combout $end
$var wire 1 P inst|Mux1~0_combout $end
$var wire 1 Q inst|Mux1~1_combout $end
$var wire 1 R inst|Mux0~0_combout $end
$var wire 1 S inst|Mux0~1_combout $end
$var wire 1 T inst|a [3] $end
$var wire 1 U inst|a [2] $end
$var wire 1 V inst|a [1] $end
$var wire 1 W inst|a [0] $end
$upscope $end
$upscope $end
$enddefinitions $end
#0
$dumpvars
0!
0"
0#
0$
0%
1&
1'
0(
0)
0*
0+
x,
0-
1.
x/
10
11
12
03
04
05
06
17
18
09
0:
0;
0<
0=
0>
0?
0@
0A
0B
0C
0D
0E
0F
0G
0H
1I
1J
0K
0L
1M
0N
0O
0P
1Q
0R
0S
0W
0V
0U
0T
$end
#10000
1$
1>
1?
0,
#50000
1!
15
16
1,
#100000
0!
05
06
0,
#120000
1%
1K
1L
1,
1U
1S
0Q
1;
1*
#130000
0%
0K
0L
0,
#150000
1#
1!
14
15
16
1,
1D
1B
1G
#200000
0!
05
06
0,
#250000
0#
1!
04
15
16
1,
0D
0B
0G
1H
1C
1N
1G
1E
1D
1A
0I
0E
1B
1R
1Q
07
0&
0S
#300000
0!
05
06
0,
#320000
1%
1K
1L
1,
1W
1O
0M
19
1(
#330000
0%
0K
0L
0,
#350000
1"
1!
13
15
16
1,
0G
0A
0B
#400000
0!
05
06
0,
#440000
1%
1K
1L
1,
1V
0W
1M
1:
09
1)
0(
#450000
0"
1!
0%
03
15
0K
16
0L
0,
1G
1A
1B
0H
0C
0N
0D
0B
0A
1=
1I
0G
0=
0R
0Q
17
1&
1S
#500000
0!
05
06
1,
#550000
1!
15
16
0,
#600000
0!
05
06
1,
#650000
1!
15
16
0,
#700000
0!
05
06
1,
#750000
1!
15
16
0,
#800000
0!
05
06
1,
#850000
1!
15
16
0,
#900000
0!
05
06
1,
#950000
1!
15
16
0,
